tidyverse learning
…
Mutate - создать новую колонку или изменить существующую

Можно просто составить новую колонку из предыдущих, используя синтаксис mutate(column_name = <expression>).

Проверим, что dps (damage per second) = damage / cooldown

wc3_units %>% 
  mutate(damage_per_second = damage / cooldown) %>% 
  select(unit, damage, cooldown, damage_per_second, dps)

Mutate - создать новую колонку или изменить существующую

# A tibble: 71 × 5
   unit           damage cooldown damage_per_second   dps
   <chr>           <dbl>    <dbl>             <dbl> <dbl>
 1 Peasant           5.5     2                 2.75  2.75
 2 Militia          12.5     1.2              10.4  10.4 
 3 Footman          12.5     1.35              9.26  9.26
 4 Rifleman         21       1.5              14    14   
 5 Knight           34       1.4              24.3  24.3 
 6 Priest            8.5     2                 4.25  4.25
 7 Sorceress        11       1.75              6.29  6.29
 8 Spell Breaker    14       1.9               7.37  7.37
 9 Flying Machine    7.5     2.5               3     3   
10 Mortar Team      58       3.5              16.6  16.6 
# … with 61 more rows
…
